…
    ## Parsed with column specification:
    ## cols(
    ##   id = col_character(),
    ##   `entity-name` = col_character(),
    ##   year = col_integer(),
    ##   `value-1` = col_double(),
    ##   `value-2` = col_double(),
    ##   `value-3` = col_double()
    ## )

``` r
df                                                         # 3900 rows : 30 years x 130 countries
```

    ## # A tibble: 3,900 x 6
    ##       id `entity-name`  year `value-1` `value-2` `value-3`
    ##    <chr>         <chr> <int>     <dbl>     <dbl>     <dbl>
    ##  1    AL       Albania  1984      0.06      0.06      0.06
    ##  2    AL       Albania  1985      0.06      0.06        NA
    ##  3    AL       Albania  1986      0.06      0.06        NA
    ##  4    AL       Albania  1987      0.06      0.06      0.06
    ##  5    AL       Albania  1988      0.08      0.08        NA
    ##  6    AL       Albania  1989      0.09      0.09        NA
    ##  7    AL       Albania  1990      0.11      0.11      0.11
    ##  8    AL       Albania  1991      0.21      0.21        NA
    ##  9    AL       Albania  1992      0.31      0.31        NA
    ## 10    AL       Albania  1993      0.41      0.41      0.41
    ## # ... with 3,890 more rows
…
``` r
entity
```

    ## # A tibble: 333 x 13
    ##                  id         type                     `long-name`
    ##               <chr>        <chr>                           <chr>
    ##  1  adaptation-fund organisation                 Adaptation Fund
    ##  2               AF      country                     Afghanistan
    ##  3           africa       region                Africa, regional
    ##  4             afdb organisation African Development Bank (AfDB)
    ##  5             afdf organisation African Development Fund (AfDF)
    ##  6               AX      country                   Åland Islands
    ##  7               AL      country                         Albania
    ##  8               DZ      country                         Algeria
    ##  9 all-donors-total         <NA>               All Donors, Total
    ## 10          america       region               America, regional
    ## # ... with 323 more rows, and 10 more variables: region <chr>,
    ## #   `iso-alpha-2` <chr>, `iso-alpha-3` <chr>, neighbors <chr>,
    ## #   `income-group` <chr>, slug <chr>, `dac-id` <chr>,
    ## #   `donor-recipient-type` <chr>, `has-domestic-data` <int>, name <chr>
…
df <- df %>% dplyr::rename(entity_name = `entity-name`, value_1 = `value-1`, value_2 = `value-2`, value_3 = `value-3`)

entity <- entity %>% dplyr::rename(long_name = `long-name`, iso_alpha_2 = `iso-alpha-2`, iso_alpha_3 = `iso-alpha-3`, income_group = `income-group`, dac_id = `dac-id`, donor_recipient_type = `donor-recipient-type`, has_domestic_data = `has-domestic-data`)
```

Basic EDA
---------

``` r
df %>% count(id)                    # 130 rows
```

    ## # A tibble: 130 x 2
    ##       id     n
    ##    <chr> <int>
    ##  1    AL    30
    ##  2    AM    30
    ##  3    AO    30
    ##  4    AZ    30
    ##  5    BA    30
    ##  6    BD    30
    ##  7    BF    30
    ##  8    BG    30
    ##  9    BI    30
    ## 10    BJ    30
    ## # ... with 120 more rows
…
    ## # A tibble: 6 x 6
    ##      id     entity_name  year value_1 value_2 value_3
    ##   <chr>           <chr> <int>   <dbl>   <dbl>   <dbl>
    ## 1    SB Solomon Islands  1984      NA      NA      NA
    ## 2    SB Solomon Islands  1985      NA      NA      NA
    ## 3    SB Solomon Islands  1986      NA      NA      NA
    ## 4    SB Solomon Islands  1987      NA      NA      NA
    ## 5    SB Solomon Islands  1988      NA      NA      NA
    ## 6    SB Solomon Islands  1989      NA      NA      NA

``` r
entity %>% count(id)                # 333 rows (assume the 130 countries in `df` and 203 'other')
```

    ## # A tibble: 333 x 2
    ##                 id     n
    ##              <chr> <int>
    ##  1              AD     1
    ##  2 adaptation-fund     1
    ##  3              AE     1
    ##  4              AF     1
    ##  5            afdb     1
    ##  6            afdf     1
    ##  7           afesd     1
    ##  8          africa     1
    ##  9              AG     1
    ## 10              AI     1
    ## # ... with 323 more rows
…
Combine the dataframes
----------------------

``` r
joined <- df %>%
  left_join(entity, by = "id")

joined                                      # 3900 rows x 18 columns
```

    ## # A tibble: 3,900 x 18
    ##       id entity_name  year value_1 value_2 value_3    type long_name
    ##    <chr>       <chr> <int>   <dbl>   <dbl>   <dbl>   <chr>     <chr>
    ##  1    AL     Albania  1984    0.06    0.06    0.06 country   Albania
    ##  2    AL     Albania  1985    0.06    0.06      NA country   Albania
    ##  3    AL     Albania  1986    0.06    0.06      NA country   Albania
    ##  4    AL     Albania  1987    0.06    0.06    0.06 country   Albania
    ##  5    AL     Albania  1988    0.08    0.08      NA country   Albania
    ##  6    AL     Albania  1989    0.09    0.09      NA country   Albania
    ##  7    AL     Albania  1990    0.11    0.11    0.11 country   Albania
    ##  8    AL     Albania  1991    0.21    0.21      NA country   Albania
    ##  9    AL     Albania  1992    0.31    0.31      NA country   Albania
    ## 10    AL     Albania  1993    0.41    0.41    0.41 country   Albania
    ## # ... with 3,890 more rows, and 10 more variables: region <chr>,
    ## #   iso_alpha_2 <chr>, iso_alpha_3 <chr>, neighbors <chr>,
    ## #   income_group <chr>, slug <chr>, dac_id <chr>,
    ## #   donor_recipient_type <chr>, has_domestic_data <int>, name <chr>
…
